…
    CigaretteButts = cigarette_butts,
    GlassBottles = glass_bottles,
    GroceryBags = grocery_bags,
    ChipBags = chip_bags,
    SportsBalls = sports_balls,
    HomesPowered = homes_powered) %>% 
  drop_na(dumpster) %>% 
  mutate(WheelName = "Mr. Trash Wheel",
         SportsBalls =round(SportsBalls, digits = 0),
         SportsBalls = as.integer(SportsBalls)) %>% 
  select(dumpster, date, year, month, WheelName, everything())
wheel_data1
```

    ## # A tibble: 547 × 15
    ##   dumpster date                year  month Wheel…¹ weight volume Plast…² Polys…³
    ##      <dbl> <dttm>              <chr> <chr> <chr>    <dbl>  <dbl>   <dbl>   <dbl>
    ## 1        1 2014-05-16 00:00:00 2014  May   Mr. Tr…   4.31     18    1450    1820
    ## 2        2 2014-05-16 00:00:00 2014  May   Mr. Tr…   2.74     13    1120    1030
    ## 3        3 2014-05-16 00:00:00 2014  May   Mr. Tr…   3.45     15    2450    3100
    ## 4        4 2014-05-17 00:00:00 2014  May   Mr. Tr…   3.1      15    2380    2730
    ## 5        5 2014-05-17 00:00:00 2014  May   Mr. Tr…   4.06     18     980     870
    ## # … with 542 more rows, 6 more variables: CigaretteButts <dbl>,
    ## #   GlassBottles <dbl>, GroceryBags <dbl>, ChipBags <dbl>, SportsBalls <int>,
    ## #   HomesPowered <dbl>, and abbreviated variable names ¹​WheelName,
    ## #   ²​PlasticBottles, ³​Polystyrene
…
    Polystyrene = polystyrene,
    CigaretteButts = cigarette_butts,
    GlassBottles = glass_bottles,
    GroceryBags = grocery_bags,
    ChipBags = chip_bags,
    HomesPowered = homes_powered) %>% 
  drop_na(dumpster) %>% 
  mutate(
    WheelName = "Professor Trash Wheel",
    year = as.character(year)) %>%
  select(dumpster, date, year, month, WheelName, everything())
wheel_data2
```

    ## # A tibble: 94 × 14
    ##   dumpster date                year  month Wheel…¹ weight volume Plast…² Polys…³
    ##      <dbl> <dttm>              <chr> <chr> <chr>    <dbl>  <dbl>   <dbl>   <dbl>
    ## 1        1 2017-01-02 00:00:00 2017  Janu… Profes…   1.79     15    1950    6080
    ## 2        2 2017-01-30 00:00:00 2017  Janu… Profes…   1.58     15    9540   11230
    ## 3        3 2017-02-26 00:00:00 2017  Febr… Profes…   2.32     18    8350    9210
    ## 4        4 2017-02-26 00:00:00 2017  Febr… Profes…   3.72     15    8590    1030
    ## 5        5 2017-02-28 00:00:00 2017  Febr… Profes…   1.45     15    7830    9950
    ## # … with 89 more rows, 5 more variables: CigaretteButts <dbl>,
    ## #   GlassBottles <dbl>, GroceryBags <dbl>, ChipBags <dbl>, HomesPowered <dbl>,
    ## #   and abbreviated variable names ¹​WheelName, ²​PlasticBottles, ³​Polystyrene

``` r
wheel_bind = 
  bind_rows(wheel_data1, wheel_data2) 
wheel_bind
```

    ## # A tibble: 641 × 15
    ##   dumpster date                year  month Wheel…¹ weight volume Plast…² Polys…³
    ##      <dbl> <dttm>              <chr> <chr> <chr>    <dbl>  <dbl>   <dbl>   <dbl>
    ## 1        1 2014-05-16 00:00:00 2014  May   Mr. Tr…   4.31     18    1450    1820
    ## 2        2 2014-05-16 00:00:00 2014  May   Mr. Tr…   2.74     13    1120    1030
    ## 3        3 2014-05-16 00:00:00 2014  May   Mr. Tr…   3.45     15    2450    3100
    ## 4        4 2014-05-17 00:00:00 2014  May   Mr. Tr…   3.1      15    2380    2730
    ## 5        5 2014-05-17 00:00:00 2014  May   Mr. Tr…   4.06     18     980     870
    ## # … with 636 more rows, 6 more variables: CigaretteButts <dbl>,
    ## #   GlassBottles <dbl>, GroceryBags <dbl>, ChipBags <dbl>, SportsBalls <int>,
    ## #   HomesPowered <dbl>, and abbreviated variable names ¹​WheelName,
    ## #   ²​PlasticBottles, ³​Polystyrene
…
  mutate(prez = prez_gop - prez_dem) %>%
  mutate(
    president = recode(
      prez,
      "1" = "republican",
      "-1" = "democratic"
    )
  ) %>% 
  select(- prez, -prez_gop, - prez_dem, -day) %>%
  arrange(year, month) %>% 
  select(year, month, everything())
pols_month_data
```

    ## # A tibble: 822 × 9
    ##    year month gov_gop sen_gop rep_gop gov_dem sen_dem rep_dem president 
    ##   <int> <fct>   <dbl>   <dbl>   <dbl>   <dbl>   <dbl>   <dbl> <chr>     
    ## 1  1947 Jan        23      51     253      23      45     198 democratic
    ## 2  1947 Feb        23      51     253      23      45     198 democratic
    ## 3  1947 Mar        23      51     253      23      45     198 democratic
    ## 4  1947 Apr        23      51     253      23      45     198 democratic
    ## 5  1947 May        23      51     253      23      45     198 democratic
    ## # … with 817 more rows
…
         month = as.integer(month),
         month = month.abb[month], 
         month = factor(month, levels = month.abb)) %>% 
  mutate(year = as.numeric(year)) %>% 
  mutate(
    year = 
      case_when(
        year <= 22 ~ year + 2000,
        year > 22 ~ year + 1900)) %>%
  arrange(year, month) %>% 
  select(year, month, everything())
snp_data
```

    ## # A tibble: 787 × 3
    ##    year month close
    ##   <dbl> <fct> <dbl>
    ## 1  1950 Jan    17.0
    ## 2  1950 Feb    17.2
    ## 3  1950 Mar    17.3
    ## 4  1950 Apr    18.0
    ## 5  1950 May    18.8
    ## # … with 782 more rows
``` r
unem_data = read_csv("./data/unemployment.csv") %>%
  pivot_longer(
      Jan:Dec,
      names_to = "month",
      values_to = "prct"
    ) %>% 
  janitor::clean_names() %>% 
  mutate(month = factor(month, levels = month.abb)) %>% 
  arrange(year, month) %>% 
  select(year, month, everything())
unem_data
```

    ## # A tibble: 816 × 3
    ##    year month  prct
    ##   <dbl> <fct> <dbl>
    ## 1  1948 Jan     3.4
    ## 2  1948 Feb     3.8
    ## 3  1948 Mar     4  
    ## 4  1948 Apr     3.9
    ## 5  1948 May     3.5
    ## # … with 811 more rows
…
